module gitlab.com/serkurnikov/amazon-storage

go 1.20

require (
	github.com/cenkalti/backoff/v4 v4.2.1
	github.com/google/uuid v1.1.2
	github.com/jmoiron/sqlx v1.2.0
	github.com/json-iterator/go v1.1.12
	github.com/lib/pq v1.9.0
	github.com/nats-io/nats.go v1.30.2
	github.com/nats-io/nuid v1.0.1
	github.com/pkg/errors v0.9.1
	github.com/powerman/structlog v0.7.3
	github.com/prometheus/client_golang v1.7.1
	github.com/spf13/viper v1.16.0
	golang.org/x/sync v0.1.0
)

require (
	github.com/beorn7/perks v1.0.1 // indirect
	github.com/cespare/xxhash/v2 v2.1.1 // indirect
	github.com/fsnotify/fsnotify v1.6.0 // indirect
	github.com/golang/protobuf v1.5.3 // indirect
	github.com/hashicorp/hcl v1.0.0 // indirect
	github.com/klauspost/compress v1.17.0 // indirect
	github.com/magiconair/properties v1.8.7 // indirect
	github.com/matttproud/golang_protobuf_extensions v1.0.1 // indirect
	github.com/mitchellh/mapstructure v1.5.0 // indirect
	github.com/modern-go/concurrent v0.0.0-20180306012644-bacd9c7ef1dd // indirect
	github.com/modern-go/reflect2 v1.0.2 // indirect
	github.com/nats-io/nats-server/v2 v2.10.1 // indirect
	github.com/nats-io/nkeys v0.4.5 // indirect
	github.com/pelletier/go-toml/v2 v2.1.0 // indirect
	github.com/prometheus/client_model v0.2.0 // indirect
	github.com/prometheus/common v0.10.0 // indirect
	github.com/prometheus/procfs v0.1.3 // indirect
	github.com/spf13/afero v1.10.0 // indirect
	github.com/spf13/cast v1.5.1 // indirect
	github.com/spf13/jwalterweatherman v1.1.0 // indirect
	github.com/spf13/pflag v1.0.5 // indirect
	github.com/subosito/gotenv v1.6.0 // indirect
	golang.org/x/crypto v0.13.0 // indirect
	golang.org/x/sys v0.12.0 // indirect
	golang.org/x/text v0.13.0 // indirect
	google.golang.org/protobuf v1.30.0 // indirect
	gopkg.in/ini.v1 v1.67.0 // indirect
	gopkg.in/yaml.v3 v3.0.1 // indirect
)
